{
    "pages": [
        {
            "page": 2,
            "label": "<",
            "current": false,
            "type": "prev",
            "href": "/page/2/"
        },
        {
            "page": 1,
            "label": "1",
            "current": false,
            "href": "/"
        },
        {
            "page": 2,
            "label": "2",
            "current": false,
            "href": "/page/2/"
        },
        {
            "page": 3,
            "label": "3",
            "current": true
        },
        {
            "page": 4,
            "label": "4",
            "current": false,
            "href": "/page/4/"
        },
        {
            "page": 5,
            "label": "5",
            "current": false,
            "href": "/page/5/"
        },
        {
            "label": ">>",
            "current": false,
            "page": 7,
            "href": "/page/7/"
        },
        {
            "label": "...",
            "current": false
        },
        {
            "page": 11,
            "label": "11",
            "current": false,
            "href": "/page/11/"
        },
        {
            "page": 4,
            "label": ">",
            "current": false,
            "type": "next",
            "href": "/page/4/"
        }
    ],
    "prev": {
        "page": 2,
        "label": "<",
        "href": "/page/2/"
    },
    "next": {
        "page": 4,
        "label": ">",
        "href": "/page/4/"
    },
    "current": {
        "page": 3,
        "current": true
    },
    "selected": {
        "page": 3,
        "current": true
    },
    "first": {
        "page": 1,
        "current": false,
        "href": "/"
    },
    "last": {
        "page": 11,
        "current": false,
        "href": "/page/11/"
    },
    "count": 105,
    "pageCount": 11
}